<?xml version="1.0" standalone="no"?>
<!DOCTYPE svg PUBLIC "-//W3C//DTD SVG 1.1//EN" "http://www.w3.org/Graphics/SVG/1.1/DTD/svg11.dtd" >
<svg xmlns="http://www.w3.org/2000/svg" xmlns:xlink="http://www.w3.org/1999/xlink" version="1.1">
<metadata></metadata>
<defs>
<font id="montserratsemibold" horiz-adv-x="1263" >
<font-face units-per-em="2048" ascent="1638" descent="-410" />
<missing-glyph horiz-adv-x="614" />
<glyph horiz-adv-x="0" />
<glyph horiz-adv-x="682" />
<glyph horiz-adv-x="0" />
<glyph horiz-adv-x="0" />
<glyph unicode="&#xd;" horiz-adv-x="614" />
<glyph unicode=" "  horiz-adv-x="614" />
<glyph unicode="&#x09;" horiz-adv-x="614" />
<glyph unicode="&#xa0;" horiz-adv-x="614" />
<glyph unicode="!" horiz-adv-x="491" d="M104 145q0 71 45 116.5t113 45.5q69 0 113.5 -45t44.5 -117q0 -71 -44.5 -117t-113.5 -46q-68 0 -113 46.5t-45 116.5zM115 1061v362h301v-362l-56 -578h-190z" />
<glyph unicode="&#x22;" horiz-adv-x="847" d="M123 889v545h237v-545h-237zM487 889v545h238v-545h-238z" />
<glyph unicode="#" horiz-adv-x="1499" d="M39 328l24 227h283l37 309h-277l25 228h281l43 342h227l-43 -342h311l43 342h230l-43 -342h278l-22 -228h-285l-37 -309h277l-25 -227h-281l-41 -328h-227l41 328h-311l-41 -328h-230l41 328h-278zM573 555h312l39 309h-312z" />
<glyph unicode="$" horiz-adv-x="1304" d="M41 217l129 264q109 -97 250.5 -156t257.5 -59q100 0 156.5 35.5t56.5 101.5q0 43 -26 75.5t-70.5 53.5t-101.5 38.5t-120.5 35.5t-127 38.5t-120.5 53t-101.5 74.5t-70.5 106.5t-26 145.5q0 167 115.5 277.5t312.5 138.5v291h236v-289q247 -24 436 -150l-125 -268 q-113 67 -236.5 107t-210.5 40q-84 0 -133 -29.5t-49 -86.5q0 -42 26 -74t70.5 -53t101.5 -39.5t120.5 -37t126.5 -40t120.5 -55t101.5 -76.5t69.5 -109t25.5 -149q0 -179 -121.5 -288.5t-322.5 -135.5v-305h-236v305q-145 17 -278.5 74.5t-235.5 144.5z" />
<glyph unicode="%" horiz-adv-x="2062" d="M70 1008q0 200 105 316t286 116q183 0 288 -116t105 -316q0 -201 -105 -317t-288 -116q-182 0 -286.5 116t-104.5 317zM272 1008q0 -120 50 -188t139 -68q90 0 140 67.5t50 188.5t-50 188.5t-140 67.5q-89 0 -139 -68t-50 -188zM358 0l1037 1434h295l-1033 -1434h-299z M1208 426q0 200 105 316t286 116q183 0 288.5 -116t105.5 -316q0 -201 -105.5 -316.5t-288.5 -115.5q-182 0 -286.5 115.5t-104.5 316.5zM1411 426q0 -120 49.5 -188t138.5 -68q90 0 140.5 68t50.5 188t-50.5 188t-140.5 68q-89 0 -138.5 -68t-49.5 -188z" />
<glyph unicode="&#x26;" horiz-adv-x="1388" d="M113 399q0 71 22.5 130.5t66.5 106.5t91 81.5t113 70.5q-125 172 -125 322q0 153 108 245.5t289 92.5q174 0 284.5 -88.5t110.5 -226.5q0 -58 -20 -109t-49.5 -89t-77.5 -75.5t-90.5 -62.5t-102.5 -56q106 -119 248 -258q67 108 109 240l200 -150q-51 -133 -135 -258 q59 -59 219 -211l-160 -159q-114 111 -208 205q-190 -164 -416 -164q-205 0 -341 116.5t-136 296.5zM373 422q0 -91 65 -149t164 -58q122 0 238 96q-187 187 -310 322q-76 -47 -116.5 -97.5t-40.5 -113.5zM528 1110q0 -93 84 -217q103 54 158 109t55 128q0 59 -39.5 95.5 t-103.5 36.5q-70 0 -112 -42.5t-42 -109.5z" />
<glyph unicode="'" horiz-adv-x="483" d="M123 889v545h237v-545h-237z" />
<glyph unicode="(" horiz-adv-x="690" d="M137 633q0 251 66 479t192 408h281q-115 -184 -179.5 -413t-64.5 -474q0 -246 64.5 -475.5t179.5 -411.5h-281q-125 178 -191.5 406.5t-66.5 480.5z" />
<glyph unicode=")" horiz-adv-x="724" d="M152 -254q115 182 179 411.5t64 475.5t-64 474.5t-179 412.5h280q126 -180 192 -408t66 -479q0 -252 -66.5 -480.5t-191.5 -406.5h-280z" />
<glyph unicode="*" horiz-adv-x="753" d="M47 1038l176 99l-176 96l80 145l174 -104l-4 201h160l-2 -201l172 102l80 -143l-179 -96l179 -99l-80 -143l-174 102l4 -198h-160l4 200l-174 -102z" />
<glyph unicode="+" horiz-adv-x="1036" d="M68 563v209h350v348h200v-348h351v-209h-351v-346h-200v346h-350z" />
<glyph unicode="," horiz-adv-x="475" d="M61 -188l86 206q-63 45 -63 127q0 70 45 115t113 45q64 0 108.5 -43t44.5 -117q0 -68 -43 -127l-137 -206h-154z" />
<glyph unicode="-" horiz-adv-x="761" d="M117 522v209h528v-209h-528z" />
<glyph unicode="." horiz-adv-x="481" d="M82 145q0 71 45 116.5t113 45.5q69 0 113 -45t44 -117q0 -71 -44 -117t-113 -46q-68 0 -113 46.5t-45 116.5z" />
<glyph unicode="/" horiz-adv-x="708" d="M-63 -229l657 1892h266l-659 -1892h-264z" />
<glyph unicode="0" d="M78 719q0 351 143.5 539t411.5 188q267 0 410 -188.5t143 -538.5q0 -352 -143 -539.5t-410 -187.5q-269 0 -412 187.5t-143 539.5zM391 719q0 -254 58.5 -372t183.5 -118q123 0 181 118t58 372q0 255 -57.5 372t-181.5 117q-125 0 -183.5 -117t-58.5 -372z" />
<glyph unicode="1" d="M201 1161v275h610v-1436h-324v1161h-286z" />
<glyph unicode="2" d="M61 1237q282 213 574 213q217 0 353 -102t136 -269q0 -108 -71.5 -224.5t-202.5 -252.5l-334 -330h660v-272h-1078v223l531 547q71 71 113 140t42 120q0 69 -51.5 107.5t-144.5 38.5q-91 0 -196.5 -48.5t-203.5 -132.5z" />
<glyph unicode="3" d="M29 154l131 258q176 -170 393 -170q134 0 208.5 54t74.5 148q0 97 -73.5 147t-211.5 50h-229v178l366 352h-586v263h979v-195l-415 -389l77 -10q186 -22 298 -125t112 -266q0 -206 -157 -334.5t-418 -128.5q-150 0 -297.5 46t-251.5 122z" />
<glyph unicode="4" d="M61 326v225l457 885h307l-428 -850h334v317h297l2 -317h195v-260h-197v-326h-297v326h-670z" />
<glyph unicode="5" d="M49 162l131 256q86 -83 185.5 -126.5t199.5 -43.5q126 0 195 55.5t69 155.5q0 91 -69 141.5t-193 50.5q-256 0 -397 -12v797h942v-271h-645v-252h162q247 0 397 -120.5t150 -313.5q0 -223 -156.5 -357t-417.5 -134q-138 0 -288 47.5t-265 126.5z" />
<glyph unicode="6" d="M86 692q0 345 174 551.5t465 206.5q114 0 235.5 -31.5t210.5 -83.5l-120 -231q-131 92 -306 92q-179 0 -270 -114t-86 -314q114 172 359 172q210 0 334 -126.5t124 -338.5q0 -225 -142 -357t-378 -132q-280 0 -440 188t-160 518zM430 471q-2 -92 60.5 -156.5t181.5 -64.5 q110 0 174.5 60t64.5 167q0 103 -61.5 162t-169.5 59q-117 0 -184.5 -64.5t-65.5 -162.5z" />
<glyph unicode="7" d="M84 965v471h1126v-232l-565 -1204h-344l551 1165h-479l-2 -200h-287z" />
<glyph unicode="8" d="M66 399q0 124 74 222.5t200 146.5q-94 51 -147.5 133t-53.5 178q0 170 133 270.5t359 100.5q227 0 360 -103t133 -280q0 -95 -49 -174t-135 -125q119 -48 188.5 -144t69.5 -218q0 -193 -152.5 -306.5t-412.5 -113.5t-413.5 111.5t-153.5 301.5zM371 434q0 -98 68 -151.5 t194 -53.5q125 0 193.5 53t68.5 150q0 95 -69 148t-195 53q-124 0 -192 -52t-68 -147zM410 1051q0 -83 58 -128.5t165 -45.5q106 0 163.5 45.5t57.5 128.5q0 85 -57.5 130.5t-163.5 45.5q-107 0 -165 -45.5t-58 -130.5z" />
<glyph unicode="9" d="M66 961q0 225 141 357t375 132q280 0 439 -188.5t159 -518.5q0 -345 -173 -551t-466 -206q-114 0 -234.5 31t-208.5 85l121 230q131 -92 303 -92q179 0 268.5 114t86.5 316q-113 -174 -357 -174q-208 0 -331 126.5t-123 338.5zM358 958q0 -103 61.5 -162t168.5 -59 q116 0 183 64.5t67 163.5q0 93 -62 158t-180 65q-110 0 -174 -61t-64 -169z" />
<glyph unicode=":" horiz-adv-x="481" d="M82 145q0 71 45 116.5t113 45.5q69 0 113 -45t44 -117q0 -71 -44 -117t-113 -46q-68 0 -113 46.5t-45 116.5zM82 754q0 71 45 116t113 45q69 0 113 -44.5t44 -116.5q0 -71 -44 -117.5t-113 -46.5q-68 0 -113 47t-45 117z" />
<glyph unicode=";" horiz-adv-x="477" d="M61 -188l86 206q-63 45 -63 127q0 70 45 115t113 45q64 0 108.5 -43t44.5 -117q0 -68 -43 -127l-137 -206h-154zM82 754q0 71 45 116t113 45q69 0 113 -44.5t44 -116.5q0 -71 -44 -117.5t-113 -46.5q-68 0 -113 47t-45 117z" />
<glyph unicode="&#x3c;" horiz-adv-x="1036" d="M68 532v265l901 381v-234l-695 -278l695 -281v-233z" />
<glyph unicode="=" horiz-adv-x="1036" d="M68 344v209h901v-209h-901zM68 782v209h901v-209h-901z" />
<glyph unicode="&#x3e;" horiz-adv-x="1036" d="M68 166v233l694 279l-694 280v234l901 -381v-264z" />
<glyph unicode="?" horiz-adv-x="946" d="M6 985q4 213 124.5 332t330.5 119q199 0 314.5 -92.5t115.5 -260.5q0 -64 -17.5 -118.5t-45.5 -94t-62 -75.5t-68 -69t-62 -67.5t-45.5 -79.5t-17.5 -96h-237q0 65 14.5 120t38 92.5t51.5 70.5t56 61.5t51.5 57.5t38 66.5t14.5 80.5q0 72 -44 108t-124 36 q-173 0 -182 -193zM293 145q0 71 45 116.5t113 45.5q69 0 113 -45t44 -117q0 -71 -44 -117t-113 -46q-68 0 -113 46.5t-45 116.5z" />
<glyph unicode="@" horiz-adv-x="1916" d="M55 547q0 184 71.5 349t194 282.5t292 186.5t358.5 69t354 -66t282.5 -181t185 -277.5t67.5 -348.5q0 -228 -109.5 -367t-282.5 -139q-200 0 -239 160l-4 31q-115 -168 -324 -168q-88 0 -170.5 34.5t-145.5 95.5t-101 151t-38 194q0 132 52.5 241.5t151.5 175.5t227 66 q58 0 113.5 -17t91.5 -41.5t58.5 -45t28.5 -33.5v115h240v-697q0 -102 84 -102q70 0 123 97t53 243q0 197 -83 355t-243 251.5t-372 93.5q-197 0 -363.5 -94.5t-263 -257.5t-96.5 -356q0 -190 91.5 -344.5t251 -241t353.5 -86.5q95 0 201 31.5t188 91.5l92 -158 q-89 -66 -224.5 -106.5t-256.5 -40.5q-187 0 -352 65t-283 178t-186 272t-68 339zM709 563q0 -111 61 -188.5t158 -77.5q103 0 164 76t61 188q0 107 -63 179.5t-166 72.5q-95 0 -155 -72.5t-60 -177.5z" />
<glyph unicode="A" horiz-adv-x="1554" d="M-6 0l622 1434h334l613 -1434h-346l-113 279h-664l-112 -279h-334zM547 539h452l-225 557z" />
<glyph unicode="B" horiz-adv-x="1458" d="M158 0v1434h659q236 0 374 -96.5t138 -262.5q0 -116 -66.5 -200t-181.5 -115q139 -26 219 -123.5t80 -239.5q0 -184 -145.5 -290.5t-394.5 -106.5h-682zM481 264h320q115 0 180.5 45.5t65.5 128.5q0 78 -66 122q-65 44 -175 44h-5h-320v-340zM481 856h320q92 0 144 42.5 t52 117.5q0 74 -52 114q-51 39 -140 39h-4h-320v-313z" />
<glyph unicode="C" horiz-adv-x="1421" d="M55 719q0 153 58.5 287.5t160 230.5t243.5 151.5t302 55.5q155 0 307 -64.5t258 -173.5l-188 -229q-74 85 -174 135.5t-199 50.5q-185 0 -310.5 -126.5t-125.5 -313.5t125.5 -314.5t310.5 -127.5q96 0 196 45.5t177 122.5l190 -207q-115 -118 -269.5 -187t-309.5 -69 q-211 0 -383.5 96t-270.5 264t-98 373z" />
<glyph unicode="D" horiz-adv-x="1574" d="M158 0v1434h608q220 0 391.5 -90.5t267 -254t95.5 -372.5t-96.5 -372t-271 -254t-398.5 -91h-596zM481 272h293q181 0 298.5 124t117.5 319q0 196 -122 321t-308 125h-279v-889z" />
<glyph unicode="E" horiz-adv-x="1368" d="M158 0v1434h1091v-269h-768v-311h690v-268h-690v-318h791v-268h-1114z" />
<glyph unicode="F" horiz-adv-x="1218" d="M158 0v1434h1030l-2 -269h-705v-352h647v-270h-647v-543h-323z" />
<glyph unicode="G" horiz-adv-x="1525" d="M55 717q0 204 102 370.5t281.5 261.5t399.5 95q158 0 311.5 -56.5t263.5 -152.5l-182 -231q-80 74 -184.5 116.5t-208.5 42.5q-191 0 -321 -128.5t-130 -317.5q0 -190 131 -319.5t322 -129.5q127 0 280 78v377h281v-551q-115 -84 -274 -135t-308 -51q-214 0 -389 95.5 t-275 263t-100 372.5z" />
<glyph unicode="H" horiz-adv-x="1611" d="M158 0v1434h323v-598h649v598h324v-1434h-324v565h-649v-565h-323z" />
<glyph unicode="I" horiz-adv-x="641" d="M158 0v1434h323v-1434h-323z" />
<glyph unicode="J" horiz-adv-x="1073" d="M-8 209l149 229q73 -77 153.5 -118t149.5 -41q81 0 126.5 48.5t45.5 139.5v692h-493v275h819v-975q0 -224 -128.5 -348.5t-352.5 -124.5q-278 0 -469 223z" />
<glyph unicode="K" horiz-adv-x="1509" d="M158 0v1434h323v-652l596 652h375l-539 -598l576 -836h-389l-412 584l-207 -230v-354h-323z" />
<glyph unicode="L" horiz-adv-x="1130" d="M158 0v1434h323v-1151h615v-283h-938z" />
<glyph unicode="M" horiz-adv-x="1873" d="M158 0v1434h362l418 -877l416 877h360v-1434h-291v967l-381 -822h-211l-380 822v-967h-293z" />
<glyph unicode="N" horiz-adv-x="1613" d="M158 0v1434h295l696 -922v922h307v-1434h-295l-694 920v-920h-309z" />
<glyph unicode="O" horiz-adv-x="1650" d="M55 717q0 206 100.5 372.5t277 260.5t392.5 94t392.5 -94.5t277 -261t100.5 -371.5q0 -204 -100.5 -371.5t-277 -263.5t-392.5 -96t-392.5 95.5t-277 263t-100.5 372.5zM387 717q0 -93 35.5 -176.5t95 -143t141 -94.5t170.5 -35q181 0 308 130.5t127 318.5t-127 316 t-308 128q-183 0 -312.5 -128.5t-129.5 -315.5z" />
<glyph unicode="P" horiz-adv-x="1388" d="M158 0v1434h608q274 0 423.5 -130t149.5 -368q0 -251 -149.5 -388.5t-423.5 -137.5h-285v-410h-323zM481 680h269q136 0 209 62t73 184q0 119 -72.5 179t-209.5 60h-269v-485z" />
<glyph unicode="Q" horiz-adv-x="1662" d="M55 717q0 206 100.5 372.5t277 260.5t392.5 94t392.5 -94.5t277 -261t100.5 -371.5q0 -237 -133 -421t-354 -263q91 -109 195 -109q106 0 251 113l117 -211q-83 -73 -192 -115.5t-213 -42.5q-145 0 -265 84t-196 234q-158 4 -297.5 61.5t-238.5 154t-156.5 230.5 t-57.5 285zM387 717q0 -93 35.5 -176.5t95 -143t141 -94.5t170.5 -35q181 0 308 130.5t127 318.5t-127 316t-308 128q-183 0 -312.5 -128.5t-129.5 -315.5z" />
<glyph unicode="R" horiz-adv-x="1482" d="M158 0v1434h622q281 0 434.5 -130t153.5 -368q0 -165 -68.5 -283t-199.5 -180l305 -473h-367l-227 410h-31h-299v-410h-323zM481 680h299q135 0 208 62t73 184q0 118 -73 178.5t-208 60.5h-299v-485z" />
<glyph unicode="S" horiz-adv-x="1304" d="M41 217l129 264q109 -97 250.5 -156t257.5 -59q100 0 156.5 35.5t56.5 101.5q0 43 -26 75.5t-70.5 53.5t-101.5 38.5t-120.5 35.5t-127 38.5t-120.5 53t-101.5 74.5t-70.5 106.5t-26 145.5q0 194 152 309t403 115q148 0 292 -42t253 -114l-125 -268q-113 67 -236.5 107 t-210.5 40q-84 0 -133 -29.5t-49 -86.5q0 -42 26 -74t70.5 -53t101.5 -39.5t120.5 -37t126.5 -40t120.5 -55t101.5 -76.5t69.5 -109t25.5 -149q0 -137 -75 -236t-200 -147.5t-286 -48.5q-174 0 -341.5 61t-291.5 166z" />
<glyph unicode="T" horiz-adv-x="1230" d="M16 1159v275h1198v-275h-438v-1159h-323v1159h-437z" />
<glyph unicode="U" horiz-adv-x="1556" d="M131 600v834h324v-834q0 -153 90 -242.5t237 -89.5q146 0 233 89t87 243v834h323v-834q0 -284 -173 -449t-470 -165q-299 0 -475 165.5t-176 448.5z" />
<glyph unicode="V" horiz-adv-x="1466" d="M0 1434h348l391 -1082l394 1082h333l-569 -1434h-334z" />
<glyph unicode="W" horiz-adv-x="2183" d="M0 1434h348l301 -1082l299 1082h318l303 -1082l299 1082h332l-476 -1434h-333l-289 1022l-295 -1022h-334z" />
<glyph unicode="X" horiz-adv-x="1476" d="M16 0l514 733l-479 701h377l299 -439l301 439h383l-477 -686l518 -748h-387l-338 477l-332 -477h-379z" />
<glyph unicode="Y" horiz-adv-x="1363" d="M-6 1434h325l367 -643l358 643h326l-522 -971v-463h-324v455z" />
<glyph unicode="Z" horiz-adv-x="1376" d="M63 0v219l803 944h-776v271h1210v-217l-800 -947h813l-2 -270h-1248z" />
<glyph unicode="[" horiz-adv-x="729" d="M158 -254v1774h530v-244h-250v-1286h250v-244h-530z" />
<glyph unicode="\" horiz-adv-x="991" d="M104 1663h267l657 -1892h-264z" />
<glyph unicode="]" horiz-adv-x="913" d="M225 -10h250v1286h-250v244h531v-1774h-531v244z" />
<glyph unicode="^" horiz-adv-x="1150" d="M61 276l381 799h265l380 -799h-233l-279 615l-280 -615h-234z" />
<glyph unicode="_" horiz-adv-x="1183" d="M0 -238h1182v-180h-1182v180z" />
<glyph unicode="`" horiz-adv-x="716" d="M94 1458l293 109l219 -334h-252z" />
<glyph unicode="a" horiz-adv-x="1220" d="M66 330q0 156 109 243.5t310 88.5h303v20q0 89 -58 136.5t-171 47.5q-153 0 -328 -96l-98 217q131 65 245.5 96t252.5 31q221 0 343 -104t124 -291l2 -719h-309v129q-115 -143 -347 -143q-174 0 -276 95.5t-102 248.5zM360 350q0 -63 46.5 -101t125.5 -38 q99 0 170.5 47.5t85.5 118.5v98h-247q-92 0 -136.5 -30t-44.5 -95z" />
<glyph unicode="b" horiz-adv-x="1400" d="M162 0v1520h315v-580q121 172 348 172q232 0 375 -156t143 -411q0 -251 -140.5 -404t-371.5 -153q-230 0 -354 172v-160h-315zM477 555q0 -136 76.5 -220.5t198.5 -84.5q121 0 196.5 85t75.5 220q0 133 -75.5 218t-196.5 85t-198 -84.5t-77 -218.5z" />
<glyph unicode="c" horiz-adv-x="1153" d="M57 547q0 253 156 409t410 156q157 0 280 -60t197 -171l-213 -154q-94 117 -244 117h-8q-116 0 -189 -81.5t-73 -213.5q0 -133 73 -216t189 -83q173 0 256 129l217 -148q-70 -116 -196 -179.5t-294 -63.5q-251 0 -406 154.5t-155 404.5z" />
<glyph unicode="d" horiz-adv-x="1402" d="M57 555q0 252 141 405.5t371 153.5q234 0 357 -174v580h313v-1520h-313v162q-120 -174 -348 -174q-235 0 -378 156t-143 411zM373 547q2 -136 78 -220.5t200 -84.5q122 0 198.5 85t76.5 220t-76.5 220t-198.5 85t-199 -85.5t-79 -219.5z" />
<glyph unicode="e" horiz-adv-x="1222" d="M57 547q0 254 157.5 409.5t410.5 155.5q285 0 423 -175q120 -152 120 -403q0 -38 -3 -79h-790q28 -104 103 -163t181 -59q162 0 279 117l166 -168q-175 -194 -471 -194q-263 0 -419.5 153.5t-156.5 405.5zM369 641h501q-3 109 -69 174.5t-174 65.5q-103 0 -171 -65 t-87 -175z" />
<glyph unicode="f" horiz-adv-x="761" d="M63 834v219h148v104q0 119 55.5 206t146 129t203.5 42q170 0 289 -78l-112 -229q-62 47 -138 47q-58 0 -94.5 -33t-36.5 -96v-92h260v-219h-260v-834h-313v834h-148z" />
<glyph unicode="g" horiz-adv-x="1320" d="M57 590q0 233 131 377.5t342 144.5h8q213 0 332 -160v150h314v-1000q0 -234 -161.5 -373t-426.5 -139q-263 0 -479 146l116 221q154 -111 342 -111q135 0 215 66.5t80 179.5v125q-116 -160 -331 -160q-214 0 -348 147t-134 386zM352 582q2 -127 73 -206t187 -79 q115 0 186.5 79.5t71.5 205.5q0 128 -71.5 207t-186.5 79t-186.5 -79.5t-73.5 -206.5z" />
<glyph unicode="h" horiz-adv-x="1382" d="M162 0v1520h315v-613q116 204 381 207q186 0 296 -114.5t110 -307.5v-692h-316v600q0 104 -58 164.5t-159 60.5q-117 -1 -185.5 -79.5t-68.5 -202.5v-543h-315z" />
<glyph unicode="i" horiz-adv-x="618" d="M152 0v1102h315v-1102h-315zM156 1415q0 69 43 113.5t110 44.5t110.5 -44.5t43.5 -113.5q0 -68 -43.5 -113t-110.5 -45t-110 45t-43 113z" />
<glyph unicode="j" horiz-adv-x="630" d="M-176 -338l86 232q67 -44 129 -44q53 0 85 32.5t32 97.5v1122h313v-1135q0 -91 -31 -164t-84 -119.5t-122 -71t-148 -24.5q-147 0 -260 74zM129 1415q0 77 51.5 126.5t130.5 49.5q82 0 132.5 -49t50.5 -127q0 -77 -51 -126.5t-132 -49.5q-78 0 -130 50t-52 126z" />
<glyph unicode="k" horiz-adv-x="1267" d="M162 0v1520h315v-836l404 416h358l-403 -424l421 -676h-372l-267 449l-141 -150v-299h-315z" />
<glyph unicode="l" horiz-adv-x="641" d="M162 0v1520h315v-1520h-315z" />
<glyph unicode="m" horiz-adv-x="2127" d="M152 0v1102h315v-191q115 200 373 203q139 0 235.5 -66.5t136.5 -187.5q106 251 398 254q183 0 290 -114t107 -308v-692h-313v600q0 105 -57 165t-156 60q-112 -1 -178 -79.5t-66 -200.5v-545h-313v600q0 105 -57 165t-154 60q-113 -1 -179.5 -79.5t-66.5 -200.5v-545 h-315z" />
<glyph unicode="n" horiz-adv-x="1372" d="M152 0v1102h315v-193q115 202 381 205q185 0 294 -114.5t109 -307.5v-692h-315v600q0 104 -58 164.5t-159 60.5q-116 -1 -184 -79.5t-68 -202.5v-543h-315z" />
<glyph unicode="o" horiz-adv-x="1296" d="M57 551q0 253 163 407t429 154q265 0 427.5 -154t162.5 -407q0 -252 -163 -407.5t-427 -155.5q-265 0 -428.5 155.5t-163.5 407.5zM373 547q0 -135 76.5 -219t199.5 -84q122 0 198.5 84t76.5 219t-76.5 219t-198.5 84q-123 0 -199.5 -84t-76.5 -219z" />
<glyph unicode="p" horiz-adv-x="1400" d="M162 -397v1499h315v-162q121 172 348 172q232 0 375 -156t143 -411q0 -251 -140.5 -404t-371.5 -153q-230 0 -354 172v-557h-315zM477 555q0 -136 76.5 -220.5t198.5 -84.5q121 0 196.5 85t75.5 220q0 133 -75.5 218t-196.5 85t-198 -84.5t-77 -218.5z" />
<glyph unicode="q" horiz-adv-x="1402" d="M57 555q0 252 141 405.5t371 153.5q234 0 357 -174v162h313v-1499h-313v559q-120 -174 -348 -174q-235 0 -378 156t-143 411zM373 547q2 -136 78 -220.5t200 -84.5q122 0 198.5 85t76.5 220t-76.5 220t-198.5 85t-199 -85.5t-79 -219.5z" />
<glyph unicode="r" horiz-adv-x="851" d="M152 0v1102h315v-199q117 208 364 211v-297q-26 2 -51 2q-131 0 -214 -67q-99 -80 -99 -222v-530h-315z" />
<glyph unicode="s" horiz-adv-x="1021" d="M37 141l102 213q85 -65 187.5 -101t195.5 -36q63 0 101.5 21.5t38.5 64.5q0 31 -24.5 55t-65 38t-91.5 30.5t-105 31.5t-105 42t-91.5 60t-65 88t-24.5 124q0 110 59 189t156 117t219 38q236 0 430 -123l-108 -215q-190 107 -336 107q-58 0 -92.5 -20.5t-34.5 -61.5 q0 -29 25 -52t66 -37t93 -30.5t106.5 -32t106.5 -43t93 -62t65.5 -89.5t24.5 -125q0 -109 -60.5 -188t-161 -117.5t-227.5 -38.5q-135 0 -259.5 39.5t-217.5 113.5z" />
<glyph unicode="t" horiz-adv-x="872" d="M47 836v217h154v303h313v-303h299v-219h-299v-455q0 -67 28 -98q26 -29 73 -29h6q60 0 147 41l66 -232q-131 -75 -287 -75q-154 0 -250 88t-96 252v510h-154z" />
<glyph unicode="u" horiz-adv-x="1351" d="M119 410v692h315v-602q0 -104 55.5 -164t151.5 -60q112 1 178 80t66 201v545h313v-1102h-313v195q-113 -207 -369 -207q-183 0 -290 113.5t-107 308.5z" />
<glyph unicode="v" horiz-adv-x="1138" d="M-6 1100l325 2l261 -803l258 803h313l-416 -1102h-323z" />
<glyph unicode="w" horiz-adv-x="1890" d="M-6 1100l321 2l246 -789l238 789h309l242 -789l241 789h312l-402 -1102h-315l-238 727l-235 -727h-316z" />
<glyph unicode="x" horiz-adv-x="1206" d="M14 0l381 563l-354 539h360l203 -334l215 334h344l-350 -537l375 -565h-363l-221 360l-242 -360h-348z" />
<glyph unicode="y" horiz-adv-x="1155" d="M-20 1102h325l289 -758l260 758h315l-483 -1225q-116 -289 -403 -289q-169 0 -299 107l133 227q71 -59 143 -59q100 0 146 98l30 62z" />
<glyph unicode="z" horiz-adv-x="1122" d="M78 0v199l567 653l-547 2v246h940v-199l-567 -653h586v-250z" />
<glyph unicode="{" horiz-adv-x="710" d="M57 508v250h74q43 0 61.5 21.5t18.5 72.5v391q0 154 77.5 216.5t268.5 62.5h121v-244q-106 0 -146 -30t-40 -105v-271q0 -108 -36 -162.5t-124 -76.5q88 -23 124 -78.5t36 -163.5v-270q0 -75 40 -105t146 -30v-244h-121q-191 0 -268.5 63t-77.5 218v389q0 52 -18.5 74 t-61.5 22h-74z" />
<glyph unicode="|" horiz-adv-x="591" d="M178 -227v1876h236v-1876h-236z" />
<glyph unicode="}" horiz-adv-x="808" d="M178 -14q106 0 146.5 30t40.5 105v270q0 109 35.5 164t123.5 78q-88 21 -123.5 75.5t-35.5 163.5v271q0 75 -40.5 105t-146.5 30v244h121q191 0 268.5 -62.5t77.5 -216.5v-391q0 -51 18.5 -72.5t61.5 -21.5h74v-250h-74q-43 0 -61.5 -22t-18.5 -74v-389 q0 -155 -77.5 -218t-268.5 -63h-121v244z" />
<glyph unicode="~" horiz-adv-x="1036" d="M123 502q0 334 219 334q46 0 92 -17t77 -37.5t65 -37.5t57 -17q69 0 69 98h213q0 -333 -219 -333q-48 0 -94.5 16.5t-76 36.5t-62.5 36.5t-57 16.5q-70 0 -70 -96h-213z" />
<glyph unicode="&#xa2;" horiz-adv-x="1228" d="M57 547q0 223 123.5 373t331.5 184v319h236v-321q232 -41 352 -221l-213 -154q-96 120 -252 117q-116 0 -189 -81.5t-73 -213.5q0 -133 73 -216t189 -83q173 0 256 129l217 -148q-114 -189 -360 -233v-305h-236v303q-207 32 -331 181t-124 370z" />
<glyph unicode="&#xa3;" horiz-adv-x="1140" d="M63 0v256h160v328h-160v225h160v166q0 226 123.5 349.5t347.5 123.5q123 0 233 -46t193 -132l-123 -246q-135 141 -268 141q-180 0 -180 -196v-160h348v-225h-348v-328h543v-256h-1029z" />
<glyph unicode="&#xa5;" horiz-adv-x="1376" d="M0 1434h324l368 -643l359 643h325l-407 -758h258v-160h-344l-29 -53v-60h373v-159h-373v-244h-324v244h-378v159h378v52l-32 61h-346v160h258z" />
<glyph unicode="&#xa8;" horiz-adv-x="825" d="M74 1411q0 67 41 109.5t106 42.5q63 0 104.5 -42.5t41.5 -109.5q0 -64 -41.5 -106.5t-104.5 -42.5q-64 0 -105.5 42t-41.5 107zM459 1411q0 67 41 109.5t106 42.5q63 0 104.5 -42.5t41.5 -109.5q0 -64 -41.5 -106.5t-104.5 -42.5q-64 0 -105.5 42t-41.5 107z" />
<glyph unicode="&#xa9;" horiz-adv-x="1499" d="M55 713q0 187 91.5 347.5t252 255.5t351.5 95q143 0 271.5 -55t220.5 -148.5t146 -221.5t54 -269q0 -187 -92 -348t-253 -256t-352 -95q-143 0 -271.5 55.5t-220 149.5t-145 222t-53.5 268zM203 713q0 -147 71 -271t196 -197t275 -73q152 0 279 74t198.5 199t71.5 272 t-71.5 271t-196.5 196.5t-276 72.5q-114 0 -215.5 -43.5t-174 -117t-115 -173.5t-42.5 -210zM399 715q0 146 104.5 244t258.5 98q73 0 145 -30t125 -83l-90 -108q-37 41 -84.5 64.5t-93.5 23.5q-88 0 -147.5 -59.5t-59.5 -147.5t59.5 -148.5t147.5 -60.5q44 0 92.5 21.5 t85.5 58.5l90 -99q-54 -56 -127.5 -88t-148.5 -32q-152 0 -254.5 99t-102.5 247z" />
<glyph unicode="&#xab;" horiz-adv-x="997" d="M18 543l244 370h258l-219 -370l219 -373h-258zM444 543l244 370h258l-219 -370l219 -373h-258z" />
<glyph unicode="&#xad;" horiz-adv-x="761" d="M117 522v209h528v-209h-528z" />
<glyph unicode="&#xae;" horiz-adv-x="1499" d="M55 713q0 187 91.5 347.5t252 255.5t351.5 95q143 0 271.5 -55t220.5 -148.5t146 -221.5t54 -269q0 -187 -92 -348t-253 -256t-352 -95q-143 0 -271.5 55.5t-220 149.5t-145 222t-53.5 268zM203 713q0 -147 71 -271t196 -197t275 -73q152 0 279 74t198.5 199t71.5 272 t-71.5 271t-196.5 196.5t-276 72.5q-114 0 -215.5 -43.5t-174 -117t-115 -173.5t-42.5 -210zM485 403v666h283q132 0 203 -60t71 -169q0 -158 -127 -215l146 -222h-170l-107 193h-16h-135v-193h-148zM633 715h135q63 0 98 31t35 88q0 56 -34.5 86t-98.5 30h-135v-235z" />
<glyph unicode="&#xb4;" horiz-adv-x="716" d="M102 1233l217 334l293 -109l-260 -225h-250z" />
<glyph unicode="&#xb8;" horiz-adv-x="716" d="M141 -414l60 138q48 -41 106 -41q40 0 64 22.5t24 54.5t-25 53t-69 21q-24 0 -74 -8l95 203h178l-66 -131q64 -18 101.5 -61t37.5 -105q0 -94 -67 -150.5t-174 -56.5q-104 0 -191 61z" />
<glyph unicode="&#xbb;" horiz-adv-x="1013" d="M98 170l219 371l-219 372h258l244 -372l-244 -371h-258zM524 170l219 371l-219 372h258l244 -372l-244 -371h-258z" />
<glyph unicode="&#xd3;" horiz-adv-x="1650" d="M55 717q0 206 100.5 372.5t277 260.5t392.5 94t392.5 -94.5t277 -261t100.5 -371.5q0 -204 -100.5 -371.5t-277 -263.5t-392.5 -96t-392.5 95.5t-277 263t-100.5 372.5zM387 717q0 -93 35.5 -176.5t95 -143t141 -94.5t170.5 -35q181 0 308 130.5t127 318.5t-127 316 t-308 128q-183 0 -312.5 -128.5t-129.5 -315.5zM647 1565l217 333l293 -108l-260 -225h-250z" />
<glyph unicode="&#xf3;" horiz-adv-x="1296" d="M57 551q0 253 163 407t429 154q265 0 427.5 -154t162.5 -407q0 -252 -163 -407.5t-427 -155.5q-265 0 -428.5 155.5t-163.5 407.5zM373 547q0 -135 76.5 -219t199.5 -84q122 0 198.5 84t76.5 219t-76.5 219t-198.5 84q-123 0 -199.5 -84t-76.5 -219zM485 1231l217 334 l293 -109l-260 -225h-250z" />
<glyph unicode="&#x104;" horiz-adv-x="1554" d="M-6 0l624 1434h332l613 -1434h-93q-92 -130 -92 -197q0 -51 49 -51q45 0 93 64l82 -99q-36 -64 -91.5 -97.5t-119.5 -33.5q-71 0 -122.5 40.5t-51.5 125.5q0 102 98 248h-98l-115 279h-658l-114 -279h-336zM545 539h461l-230 559z" />
<glyph unicode="&#x105;" horiz-adv-x="1228" d="M66 330q0 156 109 243.5t310 88.5h308v22q-3 88 -61.5 135t-172.5 47q-153 0 -328 -96l-98 217q133 66 247 96.5t253 30.5q222 0 344.5 -104t124.5 -291v-719h-78q-94 -128 -94 -197q0 -24 13.5 -37.5t37.5 -13.5q46 0 90 64l84 -99q-38 -64 -93.5 -97.5t-119.5 -33.5 q-71 0 -122.5 40.5t-51.5 125.5q0 109 102 248h-77v129q-113 -143 -347 -143q-176 0 -278 95.5t-102 248.5zM360 350q0 -63 47 -101t128 -38q96 0 171 47.5t87 114.5v102h-250q-94 0 -138.5 -29.5t-44.5 -95.5z" />
<glyph unicode="&#x106;" horiz-adv-x="1421" d="M55 719q0 153 58.5 287.5t160 230.5t243.5 151.5t302 55.5q155 0 307 -64.5t258 -173.5l-188 -229q-74 85 -174 135.5t-199 50.5q-185 0 -310.5 -126.5t-125.5 -313.5t125.5 -314.5t310.5 -127.5q96 0 196 45.5t177 122.5l190 -207q-115 -118 -269.5 -187t-309.5 -69 q-211 0 -383.5 96t-270.5 264t-98 373zM614 1565l217 333l293 -108l-260 -225h-250z" />
<glyph unicode="&#x107;" horiz-adv-x="1153" d="M57 547q0 253 156 409t410 156q157 0 280 -60t197 -171l-213 -154q-96 120 -252 117q-116 0 -189 -81.5t-73 -213.5q0 -133 73 -216t189 -83q173 0 256 129l217 -148q-70 -116 -196 -179.5t-294 -63.5q-251 0 -406 154.5t-155 404.5zM455 1233l217 334l293 -109 l-260 -225h-250z" />
<glyph unicode="&#x118;" horiz-adv-x="1380" d="M158 0v1434h1104v-258h-781v-322h703v-258h-703v-338h803v-258h-143q-94 -134 -94 -197q0 -24 14.5 -37.5t36.5 -13.5q48 0 92 64l84 -99q-38 -64 -93.5 -97.5t-119.5 -33.5q-71 0 -122.5 40.5t-51.5 125.5q0 105 100 248h-829z" />
<glyph unicode="&#x119;" horiz-adv-x="1222" d="M57 551q0 247 152 402t416 159q277 4 419 -172t123 -485h-792q27 -104 100.5 -163t183.5 -59q163 0 279 119l166 -172q-91 -104 -156 -207t-65 -166q0 -55 51 -55q43 0 90 64l82 -99q-37 -62 -91 -96.5t-118 -34.5q-72 0 -123 40.5t-51 127.5q0 129 117 287 q-97 -53 -213 -53q-258 0 -414 154.5t-156 408.5zM369 641h501q-3 106 -69.5 173t-171.5 67t-176.5 -66.5t-83.5 -173.5z" />
<glyph unicode="&#x141;" horiz-adv-x="1144" d="M-25 639v215l199 59v521h324v-426l370 110v-219l-370 -108v-508h614v-283h-938v696z" />
<glyph unicode="&#x142;" horiz-adv-x="681" d="M-31 678v215l217 63v564h316v-471l217 63v-217l-217 -64v-831h-316v741z" />
<glyph unicode="&#x143;" horiz-adv-x="1613" d="M158 0v1434h295l696 -922v922h307v-1434h-295l-694 920v-920h-309zM657 1565l217 333l293 -108l-260 -225h-250z" />
<glyph unicode="&#x144;" horiz-adv-x="1372" d="M152 0v1102h315v-193q115 202 381 205q185 0 294 -114.5t109 -307.5v-692h-315v600q0 104 -58 164.5t-159 60.5q-116 -1 -184 -79.5t-68 -202.5v-543h-315zM555 1233l217 334l293 -109l-260 -225h-250z" />
<glyph unicode="&#x15a;" horiz-adv-x="1304" d="M41 217l129 264q109 -97 250.5 -156t257.5 -59q100 0 156.5 35.5t56.5 101.5q0 43 -26 75.5t-70.5 53.5t-101.5 38.5t-120.5 35.5t-127 38.5t-120.5 53t-101.5 74.5t-70.5 106.5t-26 145.5q0 194 152 309t403 115q148 0 292 -42t253 -114l-125 -268q-113 67 -236.5 107 t-210.5 40q-84 0 -133 -29.5t-49 -86.5q0 -42 26 -74t70.5 -53t101.5 -39.5t120.5 -37t126.5 -40t120.5 -55t101.5 -76.5t69.5 -109t25.5 -149q0 -137 -75 -236t-200 -147.5t-286 -48.5q-174 0 -341.5 61t-291.5 166zM518 1565l217 333l293 -108l-260 -225h-250z" />
<glyph unicode="&#x15b;" horiz-adv-x="1021" d="M37 141l102 213q85 -65 187.5 -101t195.5 -36q63 0 101.5 21.5t38.5 64.5q0 31 -24.5 55t-65 38t-91.5 30.5t-105 31.5t-105 42t-91.5 60t-65 88t-24.5 124q0 110 59 189t156 117t219 38q236 0 430 -123l-108 -215q-190 107 -336 107q-58 0 -92.5 -20.5t-34.5 -61.5 q0 -29 25 -52t66 -37t93 -30.5t106.5 -32t106.5 -43t93 -62t65.5 -89.5t24.5 -125q0 -109 -60.5 -188t-161 -117.5t-227.5 -38.5q-135 0 -259.5 39.5t-217.5 113.5zM365 1233l217 334l292 -109l-260 -225h-249z" />
<glyph unicode="&#x179;" horiz-adv-x="1376" d="M63 0v219l803 944h-776v271h1210v-217l-800 -947h813l-2 -270h-1248zM530 1565l218 333l292 -108l-260 -225h-250z" />
<glyph unicode="&#x17a;" horiz-adv-x="1122" d="M78 0v199l567 653l-547 2v246h940v-199l-567 -653h586v-250zM403 1233l218 334l292 -109l-260 -225h-250z" />
<glyph unicode="&#x17b;" horiz-adv-x="1376" d="M63 0v219l803 944h-776v271h1210v-217l-800 -947h813l-2 -270h-1248zM541 1747q0 69 43 113.5t110 44.5t110.5 -44.5t43.5 -113.5q0 -68 -43.5 -113t-110.5 -45t-110 45t-43 113z" />
<glyph unicode="&#x17c;" horiz-adv-x="1122" d="M78 0v199l567 653l-547 2v246h940v-199l-567 -653h586v-250zM414 1415q0 69 43 113.5t110 44.5t110.5 -44.5t43.5 -113.5q0 -68 -43.5 -113t-110.5 -45t-110 45t-43 113z" />
<glyph unicode="&#x2c6;" horiz-adv-x="716" d="M4 1253l223 303h262l224 -303h-232l-123 174l-122 -174h-232z" />
<glyph unicode="&#x2da;" horiz-adv-x="716" d="M113 1417q0 100 72 172t173 72t173.5 -72t72.5 -172q0 -101 -72 -172t-174 -71q-101 0 -173 71t-72 172zM242 1417q0 -47 33.5 -79.5t82.5 -32.5q50 0 84.5 32.5t34.5 79.5q0 46 -35 78.5t-84 32.5t-82.5 -32.5t-33.5 -78.5z" />
<glyph unicode="&#x2dc;" horiz-adv-x="716" d="M6 1274q0 309 205 309q40 0 79 -16t63 -35t51 -35t47 -16q67 0 67 90h195q0 -305 -205 -305q-42 0 -81 15.5t-62.5 34.5t-50 34.5t-46.5 15.5q-67 0 -67 -92h-195z" />
<glyph unicode="&#x2000;" horiz-adv-x="952" />
<glyph unicode="&#x2001;" horiz-adv-x="1905" />
<glyph unicode="&#x2002;" horiz-adv-x="952" />
<glyph unicode="&#x2003;" horiz-adv-x="1905" />
<glyph unicode="&#x2004;" horiz-adv-x="635" />
<glyph unicode="&#x2005;" horiz-adv-x="476" />
<glyph unicode="&#x2006;" horiz-adv-x="317" />
<glyph unicode="&#x2007;" horiz-adv-x="317" />
<glyph unicode="&#x2008;" horiz-adv-x="238" />
<glyph unicode="&#x2009;" horiz-adv-x="381" />
<glyph unicode="&#x200a;" horiz-adv-x="105" />
<glyph unicode="&#x2010;" horiz-adv-x="761" d="M117 522v209h528v-209h-528z" />
<glyph unicode="&#x2011;" horiz-adv-x="761" d="M117 522v209h528v-209h-528z" />
<glyph unicode="&#x2012;" horiz-adv-x="761" d="M117 522v209h528v-209h-528z" />
<glyph unicode="&#x2013;" horiz-adv-x="833" d="M0 522v209h834v-209h-834z" />
<glyph unicode="&#x2014;" horiz-adv-x="1355" d="M0 522v209h1356v-209h-1356z" />
<glyph unicode="&#x2018;" horiz-adv-x="475" d="M61 1108q0 68 43 127l138 207h153l-86 -207q64 -46 64 -127q0 -70 -45 -115t-113 -45q-64 0 -109 43t-45 117z" />
<glyph unicode="&#x2019;" horiz-adv-x="475" d="M61 942l86 207q-63 45 -63 127q0 70 45 115t113 45q64 0 108.5 -43t44.5 -117q0 -68 -43 -127l-137 -207h-154z" />
<glyph unicode="&#x201a;" horiz-adv-x="475" d="M61 -188l86 206q-63 45 -63 127q0 70 45 115t113 45q64 0 108.5 -43t44.5 -117q0 -68 -43 -127l-137 -206h-154z" />
<glyph unicode="&#x201c;" horiz-adv-x="829" d="M61 1108q0 68 43 127l138 207h153l-86 -207q64 -46 64 -127q0 -70 -45 -115t-113 -45q-64 0 -109 43t-45 117zM416 1108q0 68 43 127l137 207h154l-86 -207q63 -45 63 -127q0 -70 -45 -115t-113 -45q-64 0 -108.5 43t-44.5 117z" />
<glyph unicode="&#x201d;" horiz-adv-x="829" d="M61 942l86 207q-63 45 -63 127q0 70 45 115t113 45q64 0 108.5 -43t44.5 -117q0 -68 -43 -127l-137 -207h-154zM416 942l86 207q-64 46 -64 127q0 70 45 115t113 45q64 0 109 -43t45 -117q0 -68 -43 -127l-138 -207h-153z" />
<glyph unicode="&#x201e;" horiz-adv-x="829" d="M61 -188l86 206q-63 45 -63 127q0 70 45 115t113 45q64 0 108.5 -43t44.5 -117q0 -68 -43 -127l-137 -206h-154zM416 -188l86 206q-64 46 -64 127q0 70 45 115t113 45q64 0 109 -43t45 -117q0 -68 -43 -127l-138 -206h-153z" />
<glyph unicode="&#x2026;" horiz-adv-x="1343" d="M82 141q0 69 44 113.5t110 44.5t108.5 -44.5t42.5 -113.5t-42.5 -114t-108.5 -45t-110 45t-44 114zM518 141q0 69 44 113.5t110 44.5t108.5 -44.5t42.5 -113.5t-42.5 -114t-108.5 -45t-110 45t-44 114zM954 141q0 69 44 113.5t110 44.5t109 -44.5t43 -113.5t-43 -114 t-109 -45t-110 45t-44 114z" />
<glyph unicode="&#x202f;" horiz-adv-x="381" />
<glyph unicode="&#x2039;" horiz-adv-x="571" d="M18 543l244 370h258l-219 -370l219 -373h-258z" />
<glyph unicode="&#x203a;" horiz-adv-x="587" d="M98 170l219 371l-219 372h258l244 -372l-244 -371h-258z" />
<glyph unicode="&#x205f;" horiz-adv-x="476" />
<glyph unicode="&#x20ac;" horiz-adv-x="1607" d="M61 489v152h185q-4 50 -4 78q0 30 4 88h-185v154h222q76 218 272 350.5t451 132.5q156 0 308 -64.5t257 -173.5l-187 -229q-74 86 -174 136t-200 50q-117 0 -215 -54.5t-156 -147.5h473v-154h-530q-9 -41 -9 -84q0 -35 7 -82h532v-152h-475q58 -97 156 -152.5t217 -55.5 q96 0 195.5 45.5t178.5 122.5l189 -207q-114 -118 -268.5 -187t-311.5 -69q-255 0 -450.5 139t-266.5 364h-215z" />
<glyph unicode="&#x2122;" horiz-adv-x="1839" d="M-14 1243v191h700v-191h-237v-670h-230v670h-233zM782 573v861h256l228 -490l227 490h256v-861h-207v529l-199 -443h-155l-197 443v-529h-209z" />
<glyph unicode="&#x25fc;" horiz-adv-x="1105" d="M0 0v1106h1106v-1106h-1106z" />
<hkern u1="&#x27;" u2="&#x2e;" k="111" />
<hkern u1="D" u2="Y" k="4" />
<hkern u1="J" u2="J" k="14" />
<hkern u1="J" u2="&#x2e;" k="14" />
<hkern u1="K" u2="&#x106;" k="43" />
<hkern u1="K" u2="&#xd3;" k="43" />
<hkern u1="K" u2="Q" k="43" />
<hkern u1="K" u2="O" k="43" />
<hkern u1="K" u2="G" k="43" />
<hkern u1="K" u2="C" k="43" />
<hkern u1="O" u2="Y" k="4" />
<hkern u1="Q" u2="Y" k="4" />
<hkern u1="U" u2="J" k="14" />
<hkern u1="V" u2="O" k="6" />
<hkern u1="V" u2="J" k="4" />
<hkern u1="W" u2="O" k="6" />
<hkern u1="W" u2="J" k="4" />
<hkern u1="W" u2="&#x26;" k="61" />
<hkern u1="Y" u2="&#x106;" k="39" />
<hkern u1="Y" u2="&#xd3;" k="39" />
<hkern u1="Y" u2="Q" k="39" />
<hkern u1="Y" u2="O" k="6" />
<hkern u1="Y" u2="J" k="4" />
<hkern u1="Y" u2="G" k="39" />
<hkern u1="Y" u2="C" k="39" />
<hkern u1="Y" u2="&#x2e;" k="2" />
<hkern u1="Y" u2="&#x26;" k="80" />
<hkern u1="a" u2="&#x7d;" k="43" />
<hkern u1="a" u2="\" k="14" />
<hkern u1="a" u2="O" k="2" />
<hkern u1="a" u2="J" k="14" />
<hkern u1="b" u2="J" k="61" />
<hkern u1="e" u2="&#x7d;" k="55" />
<hkern u1="e" u2="\" k="20" />
<hkern u1="e" u2="J" k="61" />
<hkern u1="h" u2="O" k="2" />
<hkern u1="h" u2="J" k="14" />
<hkern u1="m" u2="O" k="2" />
<hkern u1="m" u2="J" k="14" />
<hkern u1="n" u2="O" k="2" />
<hkern u1="n" u2="J" k="14" />
<hkern u1="o" u2="J" k="61" />
<hkern u1="p" u2="J" k="61" />
<hkern u1="v" u2="J" k="18" />
<hkern u1="w" u2="J" k="18" />
<hkern u1="y" u2="J" k="18" />
<hkern u1="y" u2="&#x2e;" k="41" />
<hkern u1="&#xd3;" u2="Y" k="4" />
<hkern u1="&#xf3;" u2="J" k="61" />
<hkern u1="&#x105;" u2="O" k="2" />
<hkern u1="&#x105;" u2="J" k="14" />
<hkern u1="&#x144;" u2="O" k="2" />
<hkern u1="&#x144;" u2="J" k="14" />
<hkern u1="&#x2018;" u2="&#x2e;" k="102" />
<hkern u1="&#x2019;" u2="&#x2e;" k="98" />
<hkern u1="&#x2019;" u2="&#x26;" k="43" />
<hkern g1="A,Aogonek" 	g2="C,G,O,Q,Oacute,Cacute" 	k="39" />
<hkern g1="A,Aogonek" 	g2="T" 	k="150" />
<hkern g1="A,Aogonek" 	g2="U" 	k="41" />
<hkern g1="A,Aogonek" 	g2="V,W,Y" 	k="109" />
<hkern g1="A,Aogonek" 	g2="c,d,e,g,o,q,oacute,cacute,eogonek" 	k="49" />
<hkern g1="A,Aogonek" 	g2="t,u" 	k="49" />
<hkern g1="A,Aogonek" 	g2="v,w,y" 	k="61" />
<hkern g1="A,Aogonek" 	g2="backslash" 	k="72" />
<hkern g1="A,Aogonek" 	g2="S,Sacute" 	k="8" />
<hkern g1="B" 	g2="backslash" 	k="18" />
<hkern g1="B" 	g2="J" 	k="14" />
<hkern g1="C,Cacute" 	g2="C,G,O,Q,Oacute,Cacute" 	k="27" />
<hkern g1="C,Cacute" 	g2="c,d,e,g,o,q,oacute,cacute,eogonek" 	k="27" />
<hkern g1="C,Cacute" 	g2="A,Aogonek" 	k="14" />
<hkern g1="C,Cacute" 	g2="a,aogonek" 	k="8" />
<hkern g1="F" 	g2="J" 	k="37" />
<hkern g1="F" 	g2="A,Aogonek" 	k="66" />
<hkern g1="F" 	g2="period" 	k="72" />
<hkern g1="L,Lslash" 	g2="backslash" 	k="106" />
<hkern g1="L,Lslash" 	g2="A,Aogonek" 	k="-8" />
<hkern g1="D,O,Q,Oacute" 	g2="C,G,O,Q,Oacute,Cacute" 	k="37" />
<hkern g1="D,O,Q,Oacute" 	g2="T" 	k="41" />
<hkern g1="D,O,Q,Oacute" 	g2="V,W,Y" 	k="20" />
<hkern g1="D,O,Q,Oacute" 	g2="v,w,y" 	k="8" />
<hkern g1="D,O,Q,Oacute" 	g2="J" 	k="53" />
<hkern g1="D,O,Q,Oacute" 	g2="A,Aogonek" 	k="39" />
<hkern g1="D,O,Q,Oacute" 	g2="period" 	k="49" />
<hkern g1="D,O,Q,Oacute" 	g2="x" 	k="20" />
<hkern g1="P" 	g2="J" 	k="61" />
<hkern g1="P" 	g2="A,Aogonek" 	k="102" />
<hkern g1="P" 	g2="period" 	k="78" />
<hkern g1="R" 	g2="V,W,Y" 	k="14" />
<hkern g1="R" 	g2="backslash" 	k="23" />
<hkern g1="R" 	g2="J" 	k="18" />
<hkern g1="T" 	g2="C,G,O,Q,Oacute,Cacute" 	k="78" />
<hkern g1="T" 	g2="c,d,e,g,o,q,oacute,cacute,eogonek" 	k="135" />
<hkern g1="T" 	g2="t,u" 	k="51" />
<hkern g1="T" 	g2="v,w,y" 	k="51" />
<hkern g1="T" 	g2="J" 	k="29" />
<hkern g1="T" 	g2="A,Aogonek" 	k="150" />
<hkern g1="T" 	g2="a,aogonek" 	k="43" />
<hkern g1="T" 	g2="period" 	k="115" />
<hkern g1="T" 	g2="b,h,k,l" 	k="94" />
<hkern g1="T" 	g2="ampersand" 	k="102" />
<hkern g1="T" 	g2="m,n,r,nacute" 	k="51" />
<hkern g1="T" 	g2="s,sacute" 	k="20" />
<hkern g1="T" 	g2="z,zacute,zdotaccent" 	k="43" />
<hkern g1="J,U" 	g2="J" 	k="31" />
<hkern g1="J,U" 	g2="A,Aogonek" 	k="41" />
<hkern g1="J,U" 	g2="period" 	k="35" />
<hkern g1="J,U" 	g2="x" 	k="41" />
<hkern g1="V,W,Y" 	g2="C,G,O,Q,Oacute,Cacute" 	k="25" />
<hkern g1="V,W,Y" 	g2="c,d,e,g,o,q,oacute,cacute,eogonek" 	k="123" />
<hkern g1="V,W,Y" 	g2="t,u" 	k="55" />
<hkern g1="V,W,Y" 	g2="v,w,y" 	k="14" />
<hkern g1="V,W,Y" 	g2="J" 	k="12" />
<hkern g1="V,W,Y" 	g2="A,Aogonek" 	k="109" />
<hkern g1="V,W,Y" 	g2="a,aogonek" 	k="113" />
<hkern g1="V,W,Y" 	g2="period" 	k="51" />
<hkern g1="V,W,Y" 	g2="x" 	k="49" />
<hkern g1="V,W,Y" 	g2="ampersand" 	k="43" />
<hkern g1="V,W,Y" 	g2="m,n,r,nacute" 	k="55" />
<hkern g1="V,W,Y" 	g2="s,sacute" 	k="49" />
<hkern g1="V,W,Y" 	g2="z,zacute,zdotaccent" 	k="49" />
<hkern g1="V,W,Y" 	g2="p" 	k="20" />
<hkern g1="K,X" 	g2="C,G,O,Q,Oacute,Cacute" 	k="27" />
<hkern g1="S,Sacute" 	g2="A,Aogonek" 	k="8" />
<hkern g1="c,cacute" 	g2="C,G,O,Q,Oacute,Cacute" 	k="25" />
<hkern g1="c,cacute" 	g2="V,W,Y" 	k="53" />
<hkern g1="c,cacute" 	g2="a,aogonek" 	k="29" />
<hkern g1="c,cacute" 	g2="c,d,e,g,o,q,oacute,cacute,eogonek" 	k="35" />
<hkern g1="f" 	g2="C,G,O,Q,Oacute,Cacute" 	k="-55" />
<hkern g1="f" 	g2="V,W,Y" 	k="-106" />
<hkern g1="f" 	g2="a,aogonek" 	k="55" />
<hkern g1="f" 	g2="c,d,e,g,o,q,oacute,cacute,eogonek" 	k="20" />
<hkern g1="f" 	g2="A,Aogonek" 	k="27" />
<hkern g1="f" 	g2="B,D,E,F,H,I,K,L,M,N,P,R,Eogonek,Lslash,Nacute" 	k="-66" />
<hkern g1="f" 	g2="T" 	k="-190" />
<hkern g1="f" 	g2="b,h,k,l" 	k="-41" />
<hkern g1="f" 	g2="t,u" 	k="-27" />
<hkern g1="f" 	g2="v,w,y" 	k="-61" />
<hkern g1="f" 	g2="J" 	k="33" />
<hkern g1="f" 	g2="U" 	k="-12" />
<hkern g1="f" 	g2="f" 	k="-8" />
<hkern g1="f" 	g2="period" 	k="-12" />
<hkern g1="u" 	g2="C,G,O,Q,Oacute,Cacute" 	k="29" />
<hkern g1="u" 	g2="V,W,Y" 	k="8" />
<hkern g1="u" 	g2="T" 	k="51" />
<hkern g1="u" 	g2="J" 	k="16" />
<hkern g1="g,j" 	g2="V,W,Y" 	k="14" />
<hkern g1="g,j" 	g2="T" 	k="43" />
<hkern g1="d,l" 	g2="J" 	k="16" />
<hkern g1="a,h,m,n,aogonek,nacute" 	g2="C,G,O,Q,Oacute,Cacute" 	k="12" />
<hkern g1="a,h,m,n,aogonek,nacute" 	g2="V,W,Y" 	k="88" />
<hkern g1="a,h,m,n,aogonek,nacute" 	g2="T" 	k="51" />
<hkern g1="a,h,m,n,aogonek,nacute" 	g2="v,w,y" 	k="20" />
<hkern g1="a,h,m,n,aogonek,nacute" 	g2="J" 	k="41" />
<hkern g1="a,h,m,n,aogonek,nacute" 	g2="backslash" 	k="47" />
<hkern g1="a,h,m,n,aogonek,nacute" 	g2="z,zacute,zdotaccent" 	k="12" />
<hkern g1="a,h,m,n,aogonek,nacute" 	g2="braceright" 	k="8" />
<hkern g1="b,e,o,p,oacute" 	g2="V,W,Y" 	k="123" />
<hkern g1="b,e,o,p,oacute" 	g2="A,Aogonek" 	k="49" />
<hkern g1="b,e,o,p,oacute" 	g2="T" 	k="135" />
<hkern g1="b,e,o,p,oacute" 	g2="v,w,y" 	k="37" />
<hkern g1="b,e,o,p,oacute" 	g2="J" 	k="35" />
<hkern g1="b,e,o,p,oacute" 	g2="f" 	k="14" />
<hkern g1="b,e,o,p,oacute" 	g2="backslash" 	k="20" />
<hkern g1="b,e,o,p,oacute" 	g2="z,zacute,zdotaccent" 	k="8" />
<hkern g1="b,e,o,p,oacute" 	g2="braceright" 	k="12" />
<hkern g1="b,e,o,p,oacute" 	g2="x" 	k="61" />
<hkern g1="r" 	g2="V,W,Y" 	k="41" />
<hkern g1="r" 	g2="a,aogonek" 	k="35" />
<hkern g1="r" 	g2="A,Aogonek" 	k="12" />
<hkern g1="r" 	g2="v,w,y" 	k="-49" />
<hkern g1="s,sacute" 	g2="V,W,Y" 	k="49" />
<hkern g1="s,sacute" 	g2="T" 	k="29" />
<hkern g1="s,sacute" 	g2="v,w,y" 	k="14" />
<hkern g1="s,sacute" 	g2="x" 	k="27" />
<hkern g1="t" 	g2="V,W,Y" 	k="55" />
<hkern g1="t" 	g2="c,d,e,g,o,q,oacute,cacute,eogonek" 	k="8" />
<hkern g1="t" 	g2="A,Aogonek" 	k="-8" />
<hkern g1="v,w,y" 	g2="C,G,O,Q,Oacute,Cacute" 	k="8" />
<hkern g1="v,w,y" 	g2="V,W,Y" 	k="14" />
<hkern g1="v,w,y" 	g2="a,aogonek" 	k="31" />
<hkern g1="v,w,y" 	g2="c,d,e,g,o,q,oacute,cacute,eogonek" 	k="37" />
<hkern g1="v,w,y" 	g2="A,Aogonek" 	k="61" />
<hkern g1="v,w,y" 	g2="T" 	k="51" />
<hkern g1="v,w,y" 	g2="J" 	k="29" />
<hkern g1="v,w,y" 	g2="period" 	k="55" />
<hkern g1="v,w,y" 	g2="s,sacute" 	k="14" />
<hkern g1="v,w,y" 	g2="x" 	k="8" />
<hkern g1="v,w,y" 	g2="m,n,r,nacute" 	k="-8" />
<hkern g1="k,x" 	g2="C,G,O,Q,Oacute,Cacute" 	k="20" />
<hkern g1="k,x" 	g2="V,W,Y" 	k="49" />
<hkern g1="k,x" 	g2="a,aogonek" 	k="49" />
<hkern g1="k,x" 	g2="c,d,e,g,o,q,oacute,cacute,eogonek" 	k="55" />
<hkern g1="k,x" 	g2="v,w,y" 	k="8" />
<hkern g1="k,x" 	g2="U" 	k="41" />
<hkern g1="k,x" 	g2="s,sacute" 	k="27" />
<hkern g1="z,zacute,zdotaccent" 	g2="V,W,Y" 	k="49" />
<hkern g1="z,zacute,zdotaccent" 	g2="a,aogonek" 	k="12" />
<hkern g1="z,zacute,zdotaccent" 	g2="c,d,e,g,o,q,oacute,cacute,eogonek" 	k="8" />
<hkern g1="z,zacute,zdotaccent" 	g2="m,n,r,nacute" 	k="12" />
<hkern g1="q" 	g2="V,W,Y" 	k="20" />
<hkern g1="q" 	g2="T" 	k="51" />
<hkern g1="asterisk" 	g2="J" 	k="18" />
<hkern g1="bracketleft" 	g2="C,G,O,Q,Oacute,Cacute" 	k="27" />
<hkern g1="guilsinglright" 	g2="J" 	k="25" />
<hkern g1="hyphen" 	g2="J" 	k="51" />
<hkern g1="parenleft" 	g2="C,G,O,Q,Oacute,Cacute" 	k="-35" />
<hkern g1="parenleft" 	g2="a,aogonek" 	k="20" />
<hkern g1="quoteleft" 	g2="J" 	k="31" />
<hkern g1="quoteright" 	g2="J" 	k="18" />
<hkern g1="quotesingle" 	g2="J" 	k="35" />
<hkern g1="slash" 	g2="J" 	k="41" />
<hkern g1="slash" 	g2="C,G,O,Q,Oacute,Cacute" 	k="37" />
<hkern g1="slash" 	g2="a,aogonek" 	k="23" />
<hkern g1="trademark" 	g2="J" 	k="12" />
</font>
</defs></svg> 